Library\Bee\artifacts\mvdfrm\Unity.InputSystem.ref.dll_7B1D397D2193763B.mvfrm
Library\Bee\artifacts\mvdfrm\Unity.Mathematics.ref.dll_66DE4C1C9A03AD08.mvfrm
Library\Bee\artifacts\mvdfrm\Unity.XR.CoreUtils.ref.dll_7BD60984F2BC85A2.mvfrm
Library\Bee\artifacts\mvdfrm\UnityEditor.UI.ref.dll_0174E068A5FA251B.mvfrm
Library\Bee\artifacts\mvdfrm\UnityEngine.SpatialTracking.ref.dll_CC46AD662704850F.mvfrm
Library\Bee\artifacts\mvdfrm\UnityEngine.UI.ref.dll_BDDAB6C3AC1C4D86.mvfrm
Library\Bee\artifacts\mvdfrm\UnityEngine.XR.LegacyInputHelpers.ref.dll_632513B3DE0B9F3C.mvfrm
Library\Bee\artifacts\mvdfrm\Unity.Plastic.Antlr3.Runtime.dll_5381A8530B5DCB21.mvfrm
Library\Bee\artifacts\mvdfrm\Unity.Plastic.Newtonsoft.Json.dll_AED0A6175374DB84.mvfrm
Library\Bee\artifacts\mvdfrm\Unity.VisualScripting.IonicZip.dll_565CC389408D4E4D.mvfrm
Library\Bee\artifacts\mvdfrm\Unity.VisualScripting.YamlDotNet.dll_2DF6829B4E52CD3F.mvfrm
Library\Bee\artifacts\mvdfrm\Unity.VisualScripting.TextureAssets.dll_C514ABEF0F202B37.mvfrm
Library\Bee\artifacts\mvdfrm\Unity.VisualScripting.Antlr3.Runtime.dll_DF63A97C7F1BDD5E.mvfrm
Library\Bee\artifacts\mvdfrm\UnityEditor.Graphs.dll_18C3C9088169E5B0.mvfrm
Library\Bee\artifacts\mvdfrm\UnityEditor.CoreModule.dll_8269C91973CE597E.mvfrm
Library\Bee\artifacts\mvdfrm\UnityEditor.DeviceSimulatorModule.dll_B8F1729EED675EA3.mvfrm
Library\Bee\artifacts\mvdfrm\UnityEditor.DiagnosticsModule.dll_AD1E243496F6B031.mvfrm
Library\Bee\artifacts\mvdfrm\UnityEditor.dll_28DB2D98ACA9D7B7.mvfrm
Library\Bee\artifacts\mvdfrm\UnityEditor.GraphViewModule.dll_E38877BB28CE37E8.mvfrm
Library\Bee\artifacts\mvdfrm\UnityEditor.PackageManagerUIModule.dll_B0FEA0AD8169755A.mvfrm
Library\Bee\artifacts\mvdfrm\UnityEditor.QuickSearchModule.dll_382DA541EFCDAC8A.mvfrm
Library\Bee\artifacts\mvdfrm\UnityEditor.SceneTemplateModule.dll_7611A063A1E8404B.mvfrm
Library\Bee\artifacts\mvdfrm\UnityEditor.TextCoreFontEngineModule.dll_39E165E3C33CA53C.mvfrm
Library\Bee\artifacts\mvdfrm\UnityEditor.TextCoreTextEngineModule.dll_81C99C5552C05E5A.mvfrm
Library\Bee\artifacts\mvdfrm\UnityEditor.UIBuilderModule.dll_381124D79B86B11C.mvfrm
Library\Bee\artifacts\mvdfrm\UnityEditor.UIElementsModule.dll_3515671C5A4243FA.mvfrm
Library\Bee\artifacts\mvdfrm\UnityEditor.UIElementsSamplesModule.dll_1418396249E3FB13.mvfrm
Library\Bee\artifacts\mvdfrm\UnityEditor.UIServiceModule.dll_7103363A84BE0136.mvfrm
Library\Bee\artifacts\mvdfrm\UnityEditor.UnityConnectModule.dll_D79FD3851CF1C734.mvfrm
Library\Bee\artifacts\mvdfrm\UnityEngine.AccessibilityModule.dll_A8B70BFAA25E67E8.mvfrm
Library\Bee\artifacts\mvdfrm\UnityEngine.AIModule.dll_3FA79C8620D2E412.mvfrm
Library\Bee\artifacts\mvdfrm\UnityEngine.AndroidJNIModule.dll_B35E4FEFA361B2D0.mvfrm
Library\Bee\artifacts\mvdfrm\UnityEngine.AnimationModule.dll_B20DF3E4032B0C8E.mvfrm
Library\Bee\artifacts\mvdfrm\UnityEngine.ARModule.dll_F91A61897DF042DB.mvfrm
Library\Bee\artifacts\mvdfrm\UnityEngine.AssetBundleModule.dll_7C16D8335234617C.mvfrm
Library\Bee\artifacts\mvdfrm\UnityEngine.AudioModule.dll_6ADB6B7364719A00.mvfrm
Library\Bee\artifacts\mvdfrm\UnityEngine.ClothModule.dll_D1C3C86E3E8E78E4.mvfrm
Library\Bee\artifacts\mvdfrm\UnityEngine.CoreModule.dll_A58A9C6C1BD3C4A9.mvfrm
Library\Bee\artifacts\mvdfrm\UnityEngine.CrashReportingModule.dll_982D8F5738F15BE1.mvfrm
Library\Bee\artifacts\mvdfrm\UnityEngine.DirectorModule.dll_67A96EC6B4237506.mvfrm
Library\Bee\artifacts\mvdfrm\UnityEngine.dll_5B7F74710B1D649C.mvfrm
Library\Bee\artifacts\mvdfrm\UnityEngine.DSPGraphModule.dll_6CFAD03026844627.mvfrm
Library\Bee\artifacts\mvdfrm\UnityEngine.GameCenterModule.dll_DDAB9A0A69A2A3C1.mvfrm
Library\Bee\artifacts\mvdfrm\UnityEngine.GIModule.dll_D7E3E593BC81CC2C.mvfrm
Library\Bee\artifacts\mvdfrm\UnityEngine.GridModule.dll_82FBB85A34285AA0.mvfrm
Library\Bee\artifacts\mvdfrm\UnityEngine.HotReloadModule.dll_3356B1E9DE5E2810.mvfrm
Library\Bee\artifacts\mvdfrm\UnityEngine.ImageConversionModule.dll_2A9032C0DF47241B.mvfrm
Library\Bee\artifacts\mvdfrm\UnityEngine.IMGUIModule.dll_A33B0ADA2AA32DE1.mvfrm
Library\Bee\artifacts\mvdfrm\UnityEngine.InputLegacyModule.dll_0D5BF351EA26176D.mvfrm
Library\Bee\artifacts\mvdfrm\UnityEngine.InputModule.dll_D1513323DAA9BEA4.mvfrm
Library\Bee\artifacts\mvdfrm\UnityEngine.JSONSerializeModule.dll_08CE9536A199C872.mvfrm
Library\Bee\artifacts\mvdfrm\UnityEngine.LocalizationModule.dll_958912ED65F58CF3.mvfrm
Library\Bee\artifacts\mvdfrm\UnityEngine.ParticleSystemModule.dll_EB3FD8A3A702E76F.mvfrm
Library\Bee\artifacts\mvdfrm\UnityEngine.PerformanceReportingModule.dll_5FBD390BBA984268.mvfrm
Library\Bee\artifacts\mvdfrm\UnityEngine.Physics2DModule.dll_FEB3E3D4A4280423.mvfrm
Library\Bee\artifacts\mvdfrm\UnityEngine.PhysicsModule.dll_8B78250B2B9084D1.mvfrm
Library\Bee\artifacts\mvdfrm\UnityEngine.ProfilerModule.dll_99EFA7FD4D7CFC13.mvfrm
Library\Bee\artifacts\mvdfrm\UnityEngine.RuntimeInitializeOnLoadManagerInitializerModule.dll_5EA200A7EF8E3AEC.mvfrm
Library\Bee\artifacts\mvdfrm\UnityEngine.ScreenCaptureModule.dll_22B642BBB605F4D4.mvfrm
Library\Bee\artifacts\mvdfrm\UnityEngine.SharedInternalsModule.dll_AEA1719656751F6B.mvfrm
Library\Bee\artifacts\mvdfrm\UnityEngine.SpriteMaskModule.dll_C6D80C9A8B12393B.mvfrm
Library\Bee\artifacts\mvdfrm\UnityEngine.SpriteShapeModule.dll_9578058E07D69986.mvfrm
Library\Bee\artifacts\mvdfrm\UnityEngine.StreamingModule.dll_66A2E13452B2C3CC.mvfrm
Library\Bee\artifacts\mvdfrm\UnityEngine.SubstanceModule.dll_434DF57D9E05C1DA.mvfrm
Library\Bee\artifacts\mvdfrm\UnityEngine.SubsystemsModule.dll_318572FC595A214E.mvfrm
Library\Bee\artifacts\mvdfrm\UnityEngine.TerrainModule.dll_A5BEA07A014ECDBF.mvfrm
Library\Bee\artifacts\mvdfrm\UnityEngine.TerrainPhysicsModule.dll_EBBA8176C045E1FC.mvfrm
Library\Bee\artifacts\mvdfrm\UnityEngine.TextCoreFontEngineModule.dll_B840E136D63A6407.mvfrm
Library\Bee\artifacts\mvdfrm\UnityEngine.TextCoreTextEngineModule.dll_002917A865BE1D25.mvfrm
Library\Bee\artifacts\mvdfrm\UnityEngine.TextRenderingModule.dll_4BF5B4C66D3D74C9.mvfrm
Library\Bee\artifacts\mvdfrm\UnityEngine.TilemapModule.dll_44BB07FB190BAEC8.mvfrm
Library\Bee\artifacts\mvdfrm\UnityEngine.TLSModule.dll_334168DC4967B965.mvfrm
Library\Bee\artifacts\mvdfrm\UnityEngine.UIElementsModule.dll_35C3D4645C865D45.mvfrm
Library\Bee\artifacts\mvdfrm\UnityEngine.UIElementsNativeModule.dll_FB785542F2E1E57C.mvfrm
Library\Bee\artifacts\mvdfrm\UnityEngine.UIModule.dll_3B1B3AB37D19E9BE.mvfrm
Library\Bee\artifacts\mvdfrm\UnityEngine.UmbraModule.dll_E5B0178BF1984573.mvfrm
Library\Bee\artifacts\mvdfrm\UnityEngine.UNETModule.dll_3830E45568E2BA22.mvfrm
Library\Bee\artifacts\mvdfrm\UnityEngine.UnityAnalyticsCommonModule.dll_FAFBF64FD480E0C6.mvfrm
Library\Bee\artifacts\mvdfrm\UnityEngine.UnityAnalyticsModule.dll_0ADF496D532A396B.mvfrm
Library\Bee\artifacts\mvdfrm\UnityEngine.UnityConnectModule.dll_C4FF57941779C7DF.mvfrm
Library\Bee\artifacts\mvdfrm\UnityEngine.UnityCurlModule.dll_E52A9515733EFE7B.mvfrm
Library\Bee\artifacts\mvdfrm\UnityEngine.UnityTestProtocolModule.dll_CFDAEF54A3DF5069.mvfrm
Library\Bee\artifacts\mvdfrm\UnityEngine.UnityWebRequestAssetBundleModule.dll_2C0A903BBA1EF47C.mvfrm
Library\Bee\artifacts\mvdfrm\UnityEngine.UnityWebRequestAudioModule.dll_D7B98CEA41030D00.mvfrm
Library\Bee\artifacts\mvdfrm\UnityEngine.UnityWebRequestModule.dll_3C2F3A6AEA3BBE9A.mvfrm
Library\Bee\artifacts\mvdfrm\UnityEngine.UnityWebRequestTextureModule.dll_98F0E0B8143942D5.mvfrm
Library\Bee\artifacts\mvdfrm\UnityEngine.UnityWebRequestWWWModule.dll_CAEB5D04557DD991.mvfrm
Library\Bee\artifacts\mvdfrm\UnityEngine.VehiclesModule.dll_DF6C68462E4D44A1.mvfrm
Library\Bee\artifacts\mvdfrm\UnityEngine.VFXModule.dll_B420014B1FD522D2.mvfrm
Library\Bee\artifacts\mvdfrm\UnityEngine.VideoModule.dll_8FE4EFDE2703B5A5.mvfrm
Library\Bee\artifacts\mvdfrm\UnityEngine.VRModule.dll_8DED61391ED46F36.mvfrm
Library\Bee\artifacts\mvdfrm\UnityEngine.WindModule.dll_1BD97794AD0A4312.mvfrm
Library\Bee\artifacts\mvdfrm\UnityEngine.XRModule.dll_C0AC243DA80EBC94.mvfrm
Library\Bee\artifacts\mvdfrm\Unity.Android.Gradle.dll_6CFD115D25DD6266.mvfrm
Library\Bee\artifacts\mvdfrm\Unity.Android.Types.dll_A6D1B0AF4209C536.mvfrm
Library\Bee\artifacts\mvdfrm\UnityEditor.Android.Extensions.dll_C364D3480FE58A66.mvfrm
Library\Bee\artifacts\mvdfrm\UnityEditor.WindowsStandalone.Extensions.dll_3AFB9F5CE3FB3E02.mvfrm